{
	"info": {
		"_postman_id": "9a124cc7-dd84-44d8-b691-6490d40e97c6",
		"name": "Spring Boot Microservices",
		"schema": "https://schema.getpostman.com/json/collection/v2.1.0/collection.json"
	},
	"item": [
		{
			"name": "Get Account",
			"request": {
				"method": "GET",
				"header": [],
				"body": {},
				"url": {
					"raw": "localhost:8085/account/1",
					"host": [
						"localhost"
					],
					"port": "8085",
					"path": [
						"account",
						"1"
					]
				}
			},
			"response": []
		},
		{
			"name": "Add Account",
			"request": {
				"method": "POST",
				"header": [
					{
						"key": "Content-Type",
						"value": "application/json"
					}
				],
				"body": {
					"mode": "raw",
					"raw": "{\n\t\"id\":1,\n\t\"name\":\"Sagar Jadhav\"\n}"
				},
				"url": {
					"raw": "localhost:8085/account",
					"host": [
						"localhost"
					],
					"port": "8085",
					"path": [
						"account"
					]
				}
			},
			"response": []
		},
		{
			"name": "Get Accounts",
			"request": {
				"method": "GET",
				"header": [],
				"body": {},
				"url": {
					"raw": "localhost:8085/accounts",
					"host": [
						"localhost"
					],
					"port": "8085",
					"path": [
						"accounts"
					]
				}
			},
			"response": []
		},
		{
			"name": "Update Account",
			"request": {
				"method": "PUT",
				"header": [
					{
						"key": "Content-Type",
						"value": "application/json"
					}
				],
				"body": {
					"mode": "raw",
					"raw": "{\n\t\"id\":1,\n\t\"name\":\"Anish Tiwari\"\n}"
				},
				"url": {
					"raw": "localhost:8085/account/1",
					"host": [
						"localhost"
					],
					"port": "8085",
					"path": [
						"account",
						"1"
					]
				}
			},
			"response": []
		},
		{
			"name": "Delete Account",
			"request": {
				"method": "DELETE",
				"header": [],
				"body": {},
				"url": {
					"raw": "localhost:8085/account/1",
					"host": [
						"localhost"
					],
					"port": "8085",
					"path": [
						"account",
						"1"
					]
				}
			},
			"response": []
		}
	]
}